[gd_scene load_steps=3 format=2]

[ext_resource path="res://scripts/AutoDelete.cs" type="Script" id=1]
[ext_resource path="res://sound/stepdirt_1.wav" type="AudioStream" id=2]

[node name="StepSound" type="AudioStreamPlayer3D"]
stream = ExtResource( 2 )
unit_db = -35.0
unit_size = 10.0
pitch_scale = 1.2
autoplay = true
max_distance = 10.0
attenuation_filter_cutoff_hz = 20500.0
script = ExtResource( 1 )
